E:\FSE\newaudit\Audit-Management-main\Audit-Management-main\audit-checklist\src\main\java\com\mfpe\service\QuestionServiceImpl.java
E:\FSE\newaudit\Audit-Management-main\Audit-Management-main\audit-checklist\src\main\java\com\mfpe\model\AuditType.java
E:\FSE\newaudit\Audit-Management-main\Audit-Management-main\audit-checklist\src\main\java\com\mfpe\model\Question.java
E:\FSE\newaudit\Audit-Management-main\Audit-Management-main\audit-checklist\src\main\java\com\mfpe\AuditChecklistApplication.java
E:\FSE\newaudit\Audit-Management-main\Audit-Management-main\audit-checklist\src\main\java\com\mfpe\service\QuestionService.java
E:\FSE\newaudit\Audit-Management-main\Audit-Management-main\audit-checklist\src\main\java\com\mfpe\service\AuthorizationServiceImpl.java
E:\FSE\newaudit\Audit-Management-main\Audit-Management-main\audit-checklist\src\main\java\com\mfpe\repository\QuestionRepo.java
E:\FSE\newaudit\Audit-Management-main\Audit-Management-main\audit-checklist\src\main\java\com\mfpe\controller\AuditChecklistController.java
E:\FSE\newaudit\Audit-Management-main\Audit-Management-main\audit-checklist\src\main\java\com\mfpe\feign\AuthorizationFeign.java
E:\FSE\newaudit\Audit-Management-main\Audit-Management-main\audit-checklist\src\main\java\com\mfpe\service\AuthorizationService.java
E:\FSE\newaudit\Audit-Management-main\Audit-Management-main\audit-checklist\src\main\java\com\mfpe\exception\ExceptionHandlerAdvice.java
E:\FSE\newaudit\Audit-Management-main\Audit-Management-main\audit-checklist\src\main\java\com\mfpe\model\AuthenticationResponse.java
